Data wrangling with dplyr
…
---

.blue[# 1. arrange]

Reorder rows based on select variable...

defaults to ascending order

```r
beds_data %>% 
  arrange(beds_av)
```

```
## # A tibble: 4,558 x 5
##    date       org_code org_name          beds_av occ_av
##    <date>     <chr>    <chr>               <dbl>  <dbl>
##  1 2018-09-01 RAL      Royal Free London       2      2
##  2 2018-06-01 RAL      Royal Free London       4      4
##  3 2015-09-01 RAL      Royal Free London       5      2
##  4 2013-09-01 RAL      Royal Free London       6      1
##  5 2013-12-01 RAL      Royal Free London       6      3
##  6 2014-03-01 RAL      Royal Free London       6      2
##  7 2014-06-01 RAL      Royal Free London       6      3
##  8 2014-09-01 RAL      Royal Free London       6      2
##  9 2014-12-01 RAL      Royal Free London       6      2
## 10 2015-03-01 RAL      Royal Free London       6      3
## # ... with 4,548 more rows
```

---

.blue[# 1. arrange]

We need descending order:

```r
beds_data %>% 
* arrange(desc(beds_av))
```

```
## # A tibble: 4,558 x 5
##    date       org_code org_name                   beds_av occ_av
##    <date>     <chr>    <chr>                        <dbl>  <dbl>
##  1 2013-09-01 RHA      Nottinghamshire Healthcare    1050    929
##  2 2013-12-01 RHA      Nottinghamshire Healthcare    1002    888
##  3 2014-03-01 RHA      Nottinghamshire Healthcare     993    875
##  4 2014-06-01 RHA      Nottinghamshire Healthcare     991    857
##  5 2015-03-01 RHA      Nottinghamshire Healthcare     977    821
##  6 2014-09-01 RHA      Nottinghamshire Healthcare     971    844
##  7 2014-12-01 RHA      Nottinghamshire Healthcare     939    829
##  8 2015-12-01 RWK      East London                    925    757
##  9 2015-09-01 RWK      East London                    919    762
## 10 2016-09-01 RWK      East London                    916    770
## # ... with 4,548 more rows
```
…
For each group... .darkgrey[summarise() produces a single summary value]

```r
beds_data %>% 
* group_by(date) %>%
  summarise(mean_beds = beds_av, 
            na.rm = TRUE)
```

```
## `summarise()` has grouped output by 'date'. You can override using the `.groups` argument.
```

```
## # A tibble: 4,558 x 3
## # Groups:   date [21]
##    date       mean_beds na.rm
##    <date>         <dbl> <lgl>
##  1 2013-09-01       129 TRUE 
##  2 2013-09-01       105 TRUE 
##  3 2013-09-01        NA TRUE 
##  4 2013-09-01        54 TRUE 
##  5 2013-09-01        NA TRUE 
##  6 2013-09-01        NA TRUE 
##  7 2013-09-01        NA TRUE 
##  8 2013-09-01        NA TRUE 
##  9 2013-09-01        NA TRUE 
## 10 2013-09-01        NA TRUE 
## # ... with 4,548 more rows
```
…
---

# Solution

```r
beds_data %>% 
  mutate(perc_occ = occ_av/beds_av) %>% 
  group_by(org_name) %>% 
  summarise(mean_pocc = mean(perc_occ, na.rm = TRUE)) %>% 
  arrange(desc(mean_pocc))
```

```
## # A tibble: 255 x 2
##    org_name                                       mean_pocc
##    <chr>                                              <dbl>
##  1 Barnet, Enfield And Haringey Mental Health         0.982
##  2 Bradford District Care Trust                       0.972
##  3 Camden And Islington                               0.953
##  4 Hertfordshire Partnership University               0.953
##  5 North Essex Partnership University                 0.945
##  6 Devon Partnership                                  0.945
##  7 Sussex Partnership                                 0.942
##  8 Essex Partnership University                       0.942
##  9 Manchester Mental Health And Social Care Trust     0.940
## 10 Birmingham And Solihull Mental Health              0.935
## # ... with 245 more rows
```
…
How many columns associated with each observation?

Adds another summary column.

```r
beds_data %>% 
  mutate(perc_occ = occ_av/beds_av) %>% 
  group_by(org_name) %>% 
  summarise(mean_pocc = mean(perc_occ, na.rm = TRUE),
*           number = n()) %>%
  arrange(desc(mean_pocc))
```

```
## # A tibble: 255 x 3
##    org_name                                       mean_pocc number
##    <chr>                                              <dbl>  <int>
##  1 Barnet, Enfield And Haringey Mental Health         0.982     21
##  2 Bradford District Care Trust                       0.972      3
##  3 Camden And Islington                               0.953     21
##  4 Hertfordshire Partnership University               0.953      9
##  5 North Essex Partnership University                 0.945     15
##  6 Devon Partnership                                  0.945     21
##  7 Sussex Partnership                                 0.942     21
##  8 Essex Partnership University                       0.942      6
##  9 Manchester Mental Health And Social Care Trust     0.940     14
## 10 Birmingham And Solihull Mental Health              0.935     21
## # ... with 245 more rows
```
…
Adds another summary column.

```r
beds_data %>% 
  mutate(perc_occ = occ_av/beds_av) %>% 
  group_by(org_name) %>% 
  summarise(mean_pocc = mean(perc_occ, na.rm = TRUE),
            number = n(),
*           distinct_number = n_distinct(org_name)) %>%
  arrange(desc(mean_pocc))
```

```
## # A tibble: 255 x 4
##    org_name                                     mean_pocc number distinct_number
##    <chr>                                            <dbl>  <int>           <int>
##  1 Barnet, Enfield And Haringey Mental Health       0.982     21               1
##  2 Bradford District Care Trust                     0.972      3               1
##  3 Camden And Islington                             0.953     21               1
##  4 Hertfordshire Partnership University             0.953      9               1
##  5 North Essex Partnership University               0.945     15               1
##  6 Devon Partnership                                0.945     21               1
##  7 Sussex Partnership                               0.942     21               1
##  8 Essex Partnership University                     0.942      6               1
##  9 Manchester Mental Health And Social Care Tr~     0.940     14               1
## 10 Birmingham And Solihull Mental Health            0.935     21               1
## # ... with 245 more rows
```
…
