Naming objects
…
---

# Let's revisit our dplyr session:

</br> The mean number of beds available by date

```r
beds_data %>% 
  group_by(date) %>% 
  summarise(mean_beds = mean(beds_av, na.rm = TRUE))
```

```
## # A tibble: 21 x 2
##    date       mean_beds
##    <date>         <dbl>
##  1 2013-09-01      324.
##  2 2013-12-01      322.
##  3 2014-03-01      319.
##  4 2014-06-01      320.
##  5 2014-09-01      318.
##  6 2014-12-01      315.
##  7 2015-03-01      314.
##  8 2015-06-01      294.
##  9 2015-09-01      296.
## 10 2015-12-01      296.
## # ... with 11 more rows
```
…
