Relational data
…
based on "country" value

```r
tb_cases %>% 
  left_join(tb_pop, by = "country")
```

---

# Duplicates!

For every country value in tb_cases, there are 4 in tb_pop

```
## # A tibble: 64 x 5
##    country     year.x  cases year.y        pop
##    <chr>        <dbl>  <dbl>  <dbl>      <dbl>
##  1 Afghanistan   1999    745   1999   19987071
##  2 Afghanistan   1999    745   2000   20595360
##  3 Afghanistan   1999    745   2001   21347782
##  4 Afghanistan   1999    745   2002   22202806
##  5 Brazil        1999  37737   1999  172006362
##  6 Brazil        1999  37737   2000  174504898
##  7 Brazil        1999  37737   2001  176968205
##  8 Brazil        1999  37737   2002  179393768
##  9 China         1999 212258   1999 1272915272
## 10 China         1999 212258   2000 1280428583
## # ... with 54 more rows
```
…
